This is BibTeX, Version 0.99d (TeX Live 2014)
Capacity: max_strings=35307, hash_size=35307, hash_prime=30011
The top-level auxiliary file: kdd15_dbmf_v0.02_working.aux
The style file: abbrv.bst
Database file #1: Refs_sungjin.bib
Warning--to sort, need author or key in yahoomusic_r2
Warning--empty author in yahoomusic_r2
You've used 33 entries,
            2118 wiz_defined-function locations,
            741 strings with 10755 characters,
and the built_in function-call counts, 10056 in all, are:
= -- 856
> -- 609
< -- 1
+ -- 240
- -- 204
* -- 628
:= -- 1734
add.period$ -- 100
call.type$ -- 33
change.case$ -- 199
chr.to.int$ -- 0
cite$ -- 35
duplicate$ -- 429
empty$ -- 856
format.name$ -- 204
if$ -- 2084
int.to.chr$ -- 0
int.to.str$ -- 33
missing$ -- 31
newline$ -- 168
num.names$ -- 66
pop$ -- 291
preamble$ -- 1
purify$ -- 166
quote$ -- 0
skip$ -- 231
stack$ -- 0
substring$ -- 226
swap$ -- 56
text.length$ -- 1
text.prefix$ -- 0
top$ -- 0
type$ -- 132
warning$ -- 2
while$ -- 69
width$ -- 35
write$ -- 336
(There were 2 warnings)
