\BOOKMARK [1][-]{section.1}{Introduction}{}% 1
\BOOKMARK [1][-]{section.2}{Preliminaries}{}% 2
\BOOKMARK [2][-]{subsection.2.1}{Bayesian Matrix Factorization}{section.2}% 3
\BOOKMARK [2][-]{subsection.2.2}{Stochastic Gradient Langevin Dynamics}{section.2}% 4
\BOOKMARK [1][-]{section.3}{Bayesian Matrix Factorization using SGLD}{}% 5
\BOOKMARK [2][-]{subsection.3.1}{Model}{section.3}% 6
\BOOKMARK [2][-]{subsection.3.2}{Inference}{section.3}% 7
\BOOKMARK [3][-]{subsubsection.3.2.1}{Sampling U and V using SGLD}{subsection.3.2}% 8
\BOOKMARK [3][-]{subsubsection.3.2.2}{Sampling | U, V}{subsection.3.2}% 9
\BOOKMARK [2][-]{subsection.3.3}{Distributed Inference}{section.3}% 10
\BOOKMARK [3][-]{subsubsection.3.3.1}{Distributed SGLD}{subsection.3.3}% 11
\BOOKMARK [3][-]{subsubsection.3.3.2}{DSGLD on Distributed Rating Blocks}{subsection.3.3}% 12
\BOOKMARK [1][-]{section.4}{Experiments}{}% 13
\BOOKMARK [2][-]{subsection.4.1}{Algorithms and Models}{section.4}% 14
\BOOKMARK [2][-]{subsection.4.2}{Setup}{section.4}% 15
\BOOKMARK [2][-]{subsection.4.3}{Results}{section.4}% 16
\BOOKMARK [3][-]{subsubsection.4.3.1}{Convergence and wall-clock time}{subsection.4.3}% 17
\BOOKMARK [3][-]{subsubsection.4.3.2}{Effects of number of chains and workers}{subsection.4.3}% 18
\BOOKMARK [3][-]{subsubsection.4.3.3}{Effects of latent feature dimension}{subsection.4.3}% 19
\BOOKMARK [1][-]{section.5}{Discussions}{}% 20
\BOOKMARK [1][-]{section.6}{Conclusion}{}% 21
\BOOKMARK [1][-]{section.7}{Acknowledgments}{}% 22
\BOOKMARK [1][-]{appendix.A}{Step-size Parameters}{}% 23
