\relax 
\citation{netflixwww,netflix}
\citation{ruslan08bpmf}
\citation{adams10incorporating,PorteousAsuncionWelling10}
\citation{gemulla11large,recht13parallel,zhuang13fast,christina12distributed,niu2011hogwild,hall10mapreduce,mcdonald10distributed,mann09effcient,zinkevich10psgd}
\citation{gemulla11large}
\citation{hall10mapreduce,mcdonald10distributed}
\citation{mann09effcient,zinkevich10psgd}
\citation{WellingTeh11}
\@writefile{toc}{\contentsline {section}{\numberline {1}Introduction}{\thepage }}
\citation{ruslan08bpmf}
\citation{ruslan08bpmf}
\citation{rossky78mala,Duane87,Neal11,GirolamiCalderhead10}
\citation{rossky78mala}
\@writefile{toc}{\contentsline {section}{\numberline {2}Preliminaries}{\thepage }}
\@writefile{toc}{\contentsline {subsection}{\numberline {2.1}Bayesian Matrix Factorization}{\thepage }}
\newlabel{sec:model_bpmf}{{2.1}{\thepage }}
\newlabel{eqn:bpmf_lik}{{1}{\thepage }}
\@writefile{loa}{\contentsline {algorithm}{\numberline {1}{\ignorespaces Gibbs Sampling for BPMF}}{\thepage }}
\newlabel{alg:bpmf}{{1}{\thepage }}
\@writefile{toc}{\contentsline {subsection}{\numberline {2.2}Stochastic Gradient Langevin Dynamics}{\thepage }}
\citation{WellingTeh11}
\citation{AhnKorattikaraWelling12,PatTeh13sgrld,tianqi14sghmc,dingfang14sgnht,AhnShaWel14}
\citation{AhnShaWel14}
\citation{AhnShaWel14}
\citation{andriy07pmf,tianqi14sghmc}
\newlabel{eqn:sgld}{{10}{\thepage }}
\newlabel{eqn:step_cond}{{11}{\thepage }}
\newlabel{eqn:dsgld}{{12}{\thepage }}
\@writefile{toc}{\contentsline {section}{\numberline {3}Bayesian Matrix Factorization using SGLD}{\thepage }}
\@writefile{toc}{\contentsline {subsection}{\numberline {3.1}Model}{\thepage }}
\newlabel{sec:model}{{3.1}{\thepage }}
\@writefile{toc}{\contentsline {subsection}{\numberline {3.2}Inference}{\thepage }}
\@writefile{toc}{\contentsline {subsubsection}{\numberline {3.2.1}Sampling ${\bf  U}$, ${\bf  V}$ | ${\Lambda }$, ${\bf  R}$ using SGLD}{\thepage }}
\citation{korattikara14austerity,remi2014toward}
\@writefile{lof}{\contentsline {figure}{\numberline {1}{\ignorespaces Block split schemes.}}{\thepage }}
\@writefile{lof}{\contentsline {subfigure}{\numberline{(a)}{\ignorespaces {square}}}{\thepage }}
\@writefile{lof}{\contentsline {subfigure}{\numberline{(b)}{\ignorespaces {column}}}{\thepage }}
\@writefile{lof}{\contentsline {subfigure}{\numberline{(c)}{\ignorespaces {hybrid}}}{\thepage }}
\newlabel{fig:block_split}{{1}{\thepage }}
\newlabel{eqn:biascorr}{{21}{\thepage }}
\@writefile{toc}{\contentsline {subsubsection}{\numberline {3.2.2}Sampling ${\Lambda }| {\bf  U}, {\bf  V}$}{\thepage }}
\newlabel{eqn:gibbs_la_u}{{24}{\thepage }}
\newlabel{eqn:gibbs_la_v}{{25}{\thepage }}
\@writefile{toc}{\contentsline {subsection}{\numberline {3.3}Distributed Inference}{\thepage }}
\citation{ruslan08bpmf}
\@writefile{lof}{\contentsline {figure}{\numberline {2}{\ignorespaces An example illustration. On the left, a matrix ${\bf  R}$ is partitioned into $2 \times 2$ blocks, ${\bf  B}_{11}, \cdots  , {\bf  B}_{22}$. There are two orthogonal groups (the gray $({\bf  B}_{11}, {\bf  B}_{22})$ group and the white $({\bf  B}_{12}, {\bf  B}_{21})$ group). We run two independent chains, chain $a$ with parameters ${\bf  U}^a$ and ${\bf  V}^a$ (solid-line rectangles) and chain $b$, with parameters ${\bf  U}^b$ and ${\bf  V}^b$ (dotted-line rectangles). Given four workers, we assign a block to each worker. At round $t=1$, chain $a$ updates using the gray orthogonal group and chain $b$ using the white orthogonal group. Note that the entire ${\bf  U}$ and ${\bf  V}$ matrices of both chains are updated in this single round. In the next round, the chains are assigned to the next orthogonal groups by the block-scheduler.}}{\thepage }}
\newlabel{fig:illust}{{2}{\thepage }}
\@writefile{loa}{\contentsline {algorithm}{\numberline {2}{\ignorespaces DSGLD at parameter server}}{\thepage }}
\newlabel{alg:paraserver}{{2}{\thepage }}
\@writefile{loa}{\contentsline {algorithm}{\numberline {3}{\ignorespaces DSGLD at worker $s$}}{\thepage }}
\newlabel{alg:worker}{{3}{\thepage }}
\@writefile{toc}{\contentsline {subsubsection}{\numberline {3.3.1}Distributed SGLD}{\thepage }}
\newlabel{sec:dsgld_updates}{{3.3.1}{\thepage }}
\newlabel{eqn:dsgld_dbmf_u}{{29}{\thepage }}
\newlabel{eqn:dsgld_dbmf_v}{{30}{\thepage }}
\@writefile{toc}{\contentsline {section}{\numberline {4}Experiments}{\thepage }}
\@writefile{toc}{\contentsline {subsection}{\numberline {4.1}Algorithms and Models}{\thepage }}
\@writefile{lot}{\contentsline {table}{\numberline {1}{\ignorespaces Algorithms.}}{\thepage }}
\newlabel{tb:algos}{{1}{\thepage }}
\citation{tianqi14sghmc,koren09mf}
\citation{netflix}
\citation{yahoomusic_r2}
\citation{dror12kddcup11}
\citation{dingfang14sgnht}
\citation{bez14julia}
\citation{amazonec2}
\citation{AhnKorattikaraWelling12,PatTeh13sgrld}
\newlabel{eqn:dsgld_dbmf_a}{{32}{\thepage }}
\newlabel{eqn:dsgld_dbmf_b}{{33}{\thepage }}
\@writefile{toc}{\contentsline {subsection}{\numberline {4.2}Setup}{\thepage }}
\@writefile{lot}{\contentsline {table}{\numberline {2}{\ignorespaces Datasets.}}{\thepage }}
\newlabel{tb:datasets}{{2}{\thepage }}
\@writefile{toc}{\contentsline {subsection}{\numberline {4.3}Results}{\thepage }}
\@writefile{toc}{\contentsline {subsubsection}{\numberline {4.3.1}Convergence and wall-clock time}{\thepage }}
\@writefile{lof}{\contentsline {figure}{\numberline {3}{\ignorespaces Netflix dataset ($D=30$).}}{\thepage }}
\newlabel{fig:netflix_d30}{{3}{\thepage }}
\@writefile{lof}{\contentsline {figure}{\numberline {4}{\ignorespaces Yahoo Music Rating dataset ($D=30$).}}{\thepage }}
\newlabel{fig:yahoo_d30}{{4}{\thepage }}
\citation{ruslan08bpmf}
\@writefile{lof}{\contentsline {figure}{\numberline {5}{\ignorespaces The effect of the number of chains, number of workers, and block split.}}{\thepage }}
\@writefile{lof}{\contentsline {subfigure}{\numberline{(a)}{\ignorespaces {DSGLD-C on the Netflix dataset}}}{\thepage }}
\@writefile{lof}{\contentsline {subfigure}{\numberline{(b)}{\ignorespaces {DSGLD-S on the Yahoo dataset}}}{\thepage }}
\newlabel{fig:num_worker}{{5}{\thepage }}
\@writefile{toc}{\contentsline {subsubsection}{\numberline {4.3.2}Number of chains and workers}{\thepage }}
\@writefile{toc}{\contentsline {subsubsection}{\numberline {4.3.3}Latent feature dimension}{\thepage }}
\@writefile{toc}{\contentsline {section}{\numberline {5}Conclusion}{\thepage }}
\citation{AhnKorattikaraWelling12,PatTeh13sgrld,tianqi14sghmc,dingfang14sgnht}
\bibstyle{abbrv}
\bibdata{Refs_sungjin}
\bibcite{amazonec2}{{1}{}{{}}{{}}}
\bibcite{netflixwww}{{2}{}{{}}{{}}}
\bibcite{yahoomusic_r2}{{3}{}{{}}{{}}}
\bibcite{adams10incorporating}{{4}{}{{}}{{}}}
\bibcite{AhnKorattikaraWelling12}{{5}{}{{}}{{}}}
\bibcite{AhnShaWel14}{{6}{}{{}}{{}}}
\bibcite{remi2014toward}{{7}{}{{}}{{}}}
\bibcite{netflix}{{8}{}{{}}{{}}}
\bibcite{bez14julia}{{9}{}{{}}{{}}}
\bibcite{tianqi14sghmc}{{10}{}{{}}{{}}}
\@writefile{lof}{\contentsline {figure}{\numberline {6}{\ignorespaces The effect of the latent feature dimension. (a) and (b) show RMSE for $D=[30,60,100]$ on (a) the Neflix dataset and (b) the Yahoo music ratings dataset. The maximum computational time was set to 50K seconds for Netflix and 100K ($D$=30), 200K ($D$=60), and 300K ($D$=100) seconds for Yahoo. (c) shows time (in seconds) required to draw a single sample on the Yahoo dataset.}}{\thepage }}
\@writefile{lof}{\contentsline {subfigure}{\numberline{(a)}{\ignorespaces {RMSE on Netflix}}}{\thepage }}
\@writefile{lof}{\contentsline {subfigure}{\numberline{(b)}{\ignorespaces {RMSE on Yahoo}}}{\thepage }}
\@writefile{lof}{\contentsline {subfigure}{\numberline{(c)}{\ignorespaces {Required time per sample}}}{\thepage }}
\newlabel{fig:D}{{6}{\thepage }}
\@writefile{lot}{\contentsline {table}{\numberline {3}{\ignorespaces RMSE and relative improvement (RI). Left: Netflix. Right: Yahoo. The percentage shown below each RMSE value is the relative improvement.}}{\thepage }}
\newlabel{tbl:D}{{3}{\thepage }}
\bibcite{dingfang14sgnht}{{11}{}{{}}{{}}}
\bibcite{dror12kddcup11}{{12}{}{{}}{{}}}
\bibcite{Duane87}{{13}{}{{}}{{}}}
\bibcite{gemulla11large}{{14}{}{{}}{{}}}
\bibcite{GirolamiCalderhead10}{{15}{}{{}}{{}}}
\bibcite{hall10mapreduce}{{16}{}{{}}{{}}}
\bibcite{korattikara14austerity}{{17}{}{{}}{{}}}
\bibcite{koren09mf}{{18}{}{{}}{{}}}
\bibcite{mann09effcient}{{19}{}{{}}{{}}}
\bibcite{mcdonald10distributed}{{20}{}{{}}{{}}}
\bibcite{andriy07pmf}{{21}{}{{}}{{}}}
\bibcite{Neal11}{{22}{}{{}}{{}}}
\bibcite{niu2011hogwild}{{23}{}{{}}{{}}}
\bibcite{PatTeh13sgrld}{{24}{}{{}}{{}}}
\bibcite{PorteousAsuncionWelling10}{{25}{}{{}}{{}}}
\bibcite{recht13parallel}{{26}{}{{}}{{}}}
\bibcite{rossky78mala}{{27}{}{{}}{{}}}
\bibcite{ruslan08bpmf}{{28}{}{{}}{{}}}
\bibcite{christina12distributed}{{29}{}{{}}{{}}}
\bibcite{WellingTeh11}{{30}{}{{}}{{}}}
\bibcite{zhuang13fast}{{31}{}{{}}{{}}}
\bibcite{zinkevich10psgd}{{32}{}{{}}{{}}}
\providecommand\NAT@force@numbers{}\NAT@force@numbers
\@writefile{toc}{\contentsline {section}{\numberline {A}Step-size Parameters}{\thepage }}
\@writefile{lot}{\contentsline {table}{\numberline {4}{\ignorespaces Stepsize parameters for Netflix $D$=30 and 9 workers}}{\thepage }}
\newlabel{tbl:}{{4}{\thepage }}
\@writefile{lot}{\contentsline {table}{\numberline {5}{\ignorespaces Stepsize parameters for Yahoo $D$=30 and 16 workers}}{\thepage }}
\newlabel{tbl:}{{5}{\thepage }}
