This is BibTeX, Version 0.99d (TeX Live 2014)
Capacity: max_strings=35307, hash_size=35307, hash_prime=30011
The top-level auxiliary file: kdd15_dbmf_v0.07_submitted_arXiv.aux
The style file: abbrv.bst
Database file #1: Refs_sungjin.bib
Warning--to sort, need author or key in netflixwww
Warning--to sort, need author or key in yahoomusic_r2
Warning--to sort, need author or key in amazonec2
Warning--empty author in amazonec2
Warning--empty author in netflixwww
Warning--empty author in yahoomusic_r2
You've used 31 entries,
            2118 wiz_defined-function locations,
            725 strings with 10282 characters,
and the built_in function-call counts, 9035 in all, are:
= -- 771
> -- 530
< -- 0
+ -- 210
- -- 176
* -- 557
:= -- 1546
add.period$ -- 92
call.type$ -- 31
change.case$ -- 179
chr.to.int$ -- 0
cite$ -- 37
duplicate$ -- 393
empty$ -- 783
format.name$ -- 176
if$ -- 1878
int.to.chr$ -- 0
int.to.str$ -- 31
missing$ -- 28
newline$ -- 156
num.names$ -- 58
pop$ -- 266
preamble$ -- 1
purify$ -- 148
quote$ -- 0
skip$ -- 212
stack$ -- 0
substring$ -- 195
swap$ -- 50
text.length$ -- 0
text.prefix$ -- 0
top$ -- 0
type$ -- 124
warning$ -- 6
while$ -- 60
width$ -- 33
write$ -- 308
(There were 6 warnings)
